{
    "current_page": 1,
    "data": [
        {
            "id": 1,
            "user_id": 1,
            "registration_number": "2908зху09",
            "price": "20000000",
            "address_id": null,
            "state": 1,
            "images": "http://localhost/api/files/advert_images/YlueYTMJjnpdm1Dzu3Uu4hFRBcVMGmfpkieTmb0a.jpg",
            "header": "танкер 1488",
            "description": "описание танкера",
            "phone_number": "89998815428",
            "created_at": "2023-11-19T17:18:43.000000Z",
            "updated_at": "2023-11-19T17:18:43.000000Z",
            "advert_legal_information": {
                "id": 2,
                "advert_id": 1,
                "flag": "ru ",
                "exploitation_type": 0,
                "class_formula_left": 2,
                "class_formula_right": 4,
                "type": 3,
                "purpose": "ебнутый катер",
                "was_registered": true,
                "register_valid_until": "2024-08-22",
                "vessel_status": 2,
                "project_number": "1231dsa12312",
                "building_number": "123dsa111",
                "building_year": 1978,
                "building_country": "fr ",
                "port_address": "{\"region\": \"dadasd\", \"city\": \"spb\"}",
                "vessel_location": "{\"region\": \"dadasd\", \"city\": \"spb\"}",
                "imo_number": "dasdasd12das",
                "created_at": "2023-11-19T18:12:26.000000Z",
                "updated_at": "2023-11-19T18:12:26.000000Z"
            }
        },
        {
            "id": 2,
            "user_id": 1,
            "registration_number": "2908зху09",
            "price": "20000000",
            "address_id": null,
            "state": 1,
            "images": "http://localhost/api/files/advert_images/OnWZulh4cSEfBKNoqZgItV5vj9iF0u8eD21beMq2.jpg",
            "header": "танкер 1488",
            "description": "описание танкера",
            "phone_number": "89998815428",
            "created_at": "2023-11-19T17:18:53.000000Z",
            "updated_at": "2023-11-19T17:18:53.000000Z",
            "advert_legal_information": {
                "id": 1,
                "advert_id": 2,
                "flag": "ru ",
                "exploitation_type": 0,
                "class_formula_left": 2,
                "class_formula_right": 4,
                "type": 3,
                "purpose": "ебнутый катер",
                "was_registered": true,
                "register_valid_until": "2024-08-22",
                "vessel_status": 2,
                "project_number": "1231dsa12312",
                "building_number": "123dsa111",
                "building_year": 1978,
                "building_country": "fr ",
                "port_address": "{\"region\": \"dadasd\", \"city\": \"spb\"}",
                "vessel_location": "{\"region\": \"dadasd\", \"city\": \"spb\"}",
                "imo_number": "dasdasd12das",
                "created_at": "2023-11-19T17:18:56.000000Z",
                "updated_at": "2023-11-19T17:18:56.000000Z"
            }
        },
        {
            "id": 3,
            "user_id": 1,
            "registration_number": "2908зху09",
            "price": "20000000",
            "address_id": null,
            "state": 1,
            "images": "http://localhost/api/files/advert_images/0jhVBvqwrW9hYhboAvOATWLQCBVrQsgN4ZWdOlzc.jpg",
            "header": "танкер 1488",
            "description": "описание танкера",
            "phone_number": "89998815428",
            "created_at": "2023-11-19T18:11:16.000000Z",
            "updated_at": "2023-11-19T18:11:16.000000Z",
            "advert_legal_information": null
        }
    ],
    "first_page_url": "http://localhost/api/myadverts/draft?page=1",
    "from": 1,
    "last_page": 6,
    "last_page_url": "http://localhost/api/myadverts/draft?page=6",
    "links": [
        {
            "url": null,
            "label": "&laquo; Previous",
            "active": false
        },
        {
            "url": "http://localhost/api/myadverts/draft?page=1",
            "label": "1",
            "active": true
        },
        {
            "url": "http://localhost/api/myadverts/draft?page=2",
            "label": "2",
            "active": false
        },
        {
            "url": "http://localhost/api/myadverts/draft?page=3",
            "label": "3",
            "active": false
        },
        {
            "url": "http://localhost/api/myadverts/draft?page=4",
            "label": "4",
            "active": false
        },
        {
            "url": "http://localhost/api/myadverts/draft?page=5",
            "label": "5",
            "active": false
        },
        {
            "url": "http://localhost/api/myadverts/draft?page=6",
            "label": "6",
            "active": false
        },
        {
            "url": "http://localhost/api/myadverts/draft?page=2",
            "label": "Next &raquo;",
            "active": false
        }
    ],
    "next_page_url": "http://localhost/api/myadverts/draft?page=2",
    "path": "http://localhost/api/myadverts/draft",
    "per_page": 3,
    "prev_page_url": null,
    "to": 3,
    "total": 16
}